<svg width="49" height="49" viewBox="0 0 49 49" fill="none" xmlns="http://www.w3.org/2000/svg">
<path d="M40.833 4.0835H8.16634C5.92051 4.0835 4.08301 5.921 4.08301 8.16683V44.9168L12.2497 36.7502H40.833C43.0788 36.7502 44.9163 34.9127 44.9163 32.6668V8.16683C44.9163 5.921 43.0788 4.0835 40.833 4.0835Z" fill="#FEA900"/>
</svg>
