<svg width="50" height="40" viewBox="0 0 50 40" fill="none" xmlns="http://www.w3.org/2000/svg">
<path d="M42.5 0H7.5C5.51088 0 3.60322 0.790177 2.1967 2.1967C0.790177 3.60322 0 5.51088 0 7.5V32.5C0 34.4891 0.790177 36.3968 2.1967 37.8033C3.60322 39.2098 5.51088 40 7.5 40H42.5C44.4891 40 46.3968 39.2098 47.8033 37.8033C49.2098 36.3968 50 34.4891 50 32.5V7.5C50 5.51088 49.2098 3.60322 47.8033 2.1967C46.3968 0.790177 44.4891 0 42.5 0ZM7.5 35C6.83696 35 6.20107 34.7366 5.73223 34.2678C5.26339 33.7989 5 33.163 5 32.5V26.45L13.25 18.225C13.7173 17.7669 14.3456 17.5104 15 17.5104C15.6544 17.5104 16.2827 17.7669 16.75 18.225L33.525 35H7.5ZM45 32.5C45 33.163 44.7366 33.7989 44.2678 34.2678C43.7989 34.7366 43.163 35 42.5 35H40.575L31.05 25.425L33.25 23.225C33.7173 22.7669 34.3456 22.5104 35 22.5104C35.6544 22.5104 36.2827 22.7669 36.75 23.225L45 31.45V32.5ZM45 24.4L40.3 19.725C38.8751 18.3561 36.9759 17.5916 35 17.5916C33.0241 17.5916 31.1249 18.3561 29.7 19.725L27.5 21.925L20.3 14.725C18.8751 13.3561 16.9759 12.5916 15 12.5916C13.0241 12.5916 11.1249 13.3561 9.7 14.725L5 19.4V7.5C5 6.83696 5.26339 6.20107 5.73223 5.73223C6.20107 5.26339 6.83696 5 7.5 5H42.5C43.163 5 43.7989 5.26339 44.2678 5.73223C44.7366 6.20107 45 6.83696 45 7.5V24.4Z" fill="#A1A5B7"/>
</svg>
